{
	"year": 1998,
	"img": "98-99.jpg",
	"rows": [
		{"label": "First Row", "people": [
			"Ryan Evans"
		]},
		{"label": "Second Row", "people": [
			"Sara Grady",
			"Su-Wen Ho",
			"Kali Wallace",
			"Veronica Gross"
		]},
		{"label": "Third Row", "people": [
			"Alyssa Letourneau",
			"Vivek Kulkarni",
			"Dan Morris",
			"Kenji Takeuchi",
			"Liz Thompson",
			"Mike Fried"
		]},
		{"label": "Fourth Row", "people": [
			"Nick Lochmatow",
			"Sae Wi",
			"Nico Talian",
			"Soren Spies",
			"Bobby Smith",
			"Lucas Ives",
			"Rich Lee",
			"Neel Josh"
		]},
		{"label": "Fifth Row", "people": [
			"Samuel Gorstein",
			"Aram Berlandi",
			"Mahesh Madhav",
			"Donald Engel"
		]},
		{"label": "Sixth Row", "people": [
			"Paul George",
			"Edgar Padilla",
			"Keith Dreibelbis",
			"Lou Arruda",
			"Robert Letzler",
			"Woody Anderson"
		]}
	]
}