{
	"year": 2011,
	"img": "11-12.jpg",
	"rows": [
		{"label": "First Row", "people": [
			"Leilani Diaz",
			"Chloe Cheung",
			"Kassie Kelly",
			"Audrey Lew",
			"Rebecca Soules"
		]},
		{"label": "Second Row", "people": [
			"Nicholas Sinnott-Armstrong",
			"Liz Young",
			"Rebecca Haumann",
			"Megan Turley",
			"Anna Louie",
			"Gage Hackford",
			"Moises Arriaga",
			"Nathan Partlan",
			"Abbie Popa",
			"Tyler Mantaring"
		]},
		{"label": "Third Row", "people": [
			"Jeff Blum",
			"Julia Murdza",
			"Joshua Brown",
			"Laura Berman",
			"Lauren Kenney",
			"Zach Rowe",
			"Stephanie DeMane",
			"Sarah Lewin",
			"Ethan Cecchetti",
			"Annie Carlson",
			"Jeffrey Pfau"
		]},
		{"label": "Fourth Row", "people": [
			"John Ryan-Henry",
			"Aaron King",
			"Roan LaPlante",
			"Drew Armstrong",
			"Kelvin Jackson",
			"Edward Tremel",
			"Dom Errazo",
			"Ian Strickman",
			"Miranda Sinnott-Armstrong",
			"Emily Walsh"
		]},
		{"label": "Fifth Row", "people": [
			"Alec Tutino",
			"Justin Kim",
			"Abe Pressman",
			"Emily Matteson",
			"Shannon Johnson",
			"Nori Aquino",
			"Alex Cevallos",
			"Dan Crowell",
			"Spain"
		]},
		{"label": "Sixth Row", "people": [
			"Mike 'The Jerk' Kossey",
			"Joe Bobroskie",
			"Dan Ladd",
			"John Hawley"
		]},
		{"label": "Not Pictured", "people": [
			"Jingtao Huang",
			"Andrew Ayer",
			"Brian Smith",
			"Charles Lee",
			"Jessica Le",
			"David Percy",
			"Han Zou",
			"Jon Sailor",
			"Zack Kahn",
			"Max Gottesman",
			"Joe Hakam",
			"Aaron Silverman",
			"Paul Backus",
			"Roberto Ochoa",
			"Matthew Milano",
			"Yudi Fu",
			"Zach Minster",
			"Zach Davis"
		]}
	]
}
